\relax 
\catcode`"\active
\ifx\hyper@anchor\@undefined
\global \let \oldcontentsline\contentsline
\gdef \contentsline#1#2#3#4{\oldcontentsline{#1}{#2}{#3}}
\global \let \oldnewlabel\newlabel
\gdef \newlabel#1#2{\newlabelxx{#1}#2}
\gdef \newlabelxx#1#2#3#4#5#6{\oldnewlabel{#1}{{#2}{#3}}}
\AtEndDocument{\let \contentsline\oldcontentsline
\let \newlabel\oldnewlabel}
\else
\global \let \hyper@last\relax 
\fi

\select@language{english}
\@writefile{toc}{\select@language{english}}
\@writefile{lof}{\select@language{english}}
\@writefile{lot}{\select@language{english}}
\@writefile{toc}{\contentsline {section}{\numberline {1}\IeC {\CYRA }\IeC {\cyrl }\IeC {\cyrg }\IeC {\cyro }\IeC {\cyrr }\IeC {\cyri }\IeC {\cyrt }\IeC {\cyrm } \IeC {\CYRE }\IeC {\cyrv }\IeC {\cyrk }\IeC {\cyrl }\IeC {\cyri }\IeC {\cyrd }\IeC {\cyra }.}{1}{section.1}}
\@writefile{toc}{\contentsline {section}{\numberline {2}\IeC {\CYRP }\IeC {\cyro }\IeC {\cyrr }\IeC {\cyro }\IeC {\cyrzh }\IeC {\cyrd }\IeC {\cyre }\IeC {\cyrn }\IeC {\cyri }\IeC {\cyre } \IeC {\cyrk }\IeC {\cyro }\IeC {\cyrm }\IeC {\cyrb }\IeC {\cyri }\IeC {\cyrn }\IeC {\cyra }\IeC {\cyrt }\IeC {\cyro }\IeC {\cyrr }\IeC {\cyrn }\IeC {\cyrery }\IeC {\cyrh } \IeC {\cyro }\IeC {\cyrb }\IeC {\cyrhrdsn }\IeC {\cyre }\IeC {\cyrk }\IeC {\cyrt }\IeC {\cyro }\IeC {\cyrv }.}{1}{section.2}}
\@writefile{toc}{\contentsline {section}{\numberline {3}\IeC {\CYRZ }\IeC {\cyra }\IeC {\cyrd }\IeC {\cyra }\IeC {\cyrch }\IeC {\cyrk }\IeC {\cyri } \IeC {\cyrp }\IeC {\cyro } \IeC {\cyrk }\IeC {\cyro }\IeC {\cyrm }\IeC {\cyrb }\IeC {\cyri }\IeC {\cyrn }\IeC {\cyra }\IeC {\cyrt }\IeC {\cyro }\IeC {\cyrr }\IeC {\cyri }\IeC {\cyrk }\IeC {\cyre } \IeC {\cyrs }\IeC {\cyro } \IeC {\cyrz }\IeC {\cyrv }\IeC {\cyre }\IeC {\cyrz }\IeC {\cyrd }\IeC {\cyro }\IeC {\cyrch }\IeC {\cyrk }\IeC {\cyro }\IeC {\cyrishrt }.}{2}{section.3}}
\@writefile{toc}{\contentsline {section}{\numberline {4}\IeC {\CYRZ }\IeC {\cyra }\IeC {\cyrd }\IeC {\cyra }\IeC {\cyrch }\IeC {\cyrk }\IeC {\cyri } \IeC {\cyrn }\IeC {\cyra } \IeC {\cyrs }\IeC {\cyro }\IeC {\cyro }\IeC {\cyrb }\IeC {\cyrr }\IeC {\cyra }\IeC {\cyrz }\IeC {\cyri }\IeC {\cyrt }\IeC {\cyre }\IeC {\cyrl }\IeC {\cyrsftsn }\IeC {\cyrn }\IeC {\cyro }\IeC {\cyrs }\IeC {\cyrt }\IeC {\cyrsftsn }.}{2}{section.4}}
