\relax 
\catcode`"\active
\select@language{english}
\@writefile{toc}{\select@language{english}}
\@writefile{lof}{\select@language{english}}
\@writefile{lot}{\select@language{english}}
\@writefile{toc}{\contentsline {section}{\numberline {1}\IeC {\CYRO }\IeC {\cyrp }\IeC {\cyrr }\IeC {\cyre }\IeC {\cyrd }\IeC {\cyre }\IeC {\cyrl }\IeC {\cyre }\IeC {\cyrn }\IeC {\cyri }\IeC {\cyre } \IeC {\cyrv }\IeC {\cyre }\IeC {\cyrr }\IeC {\cyro }\IeC {\cyrya }\IeC {\cyrt }\IeC {\cyrn }\IeC {\cyro }\IeC {\cyrs }\IeC {\cyrt }\IeC {\cyrn }\IeC {\cyro }\IeC {\cyrg }\IeC {\cyro } \IeC {\cyrp }\IeC {\cyrr }\IeC {\cyro }\IeC {\cyrs }\IeC {\cyrt }\IeC {\cyrr }\IeC {\cyra }\IeC {\cyrn }\IeC {\cyrs }\IeC {\cyrt }\IeC {\cyrv }\IeC {\cyra } \IeC {\cyrv } \IeC {\cyrd }\IeC {\cyri }\IeC {\cyrs }\IeC {\cyrk }\IeC {\cyrr }\IeC {\cyre }\IeC {\cyrt }\IeC {\cyrn }\IeC {\cyro }\IeC {\cyrm } \IeC {\cyrs }\IeC {\cyrl }\IeC {\cyru }\IeC {\cyrch }\IeC {\cyra }\IeC {\cyre }.}{1}}
\@writefile{toc}{\contentsline {section}{\numberline {2}\IeC {\CYRU }\IeC {\cyrs }\IeC {\cyrl }\IeC {\cyro }\IeC {\cyrv }\IeC {\cyrn }\IeC {\cyrery }\IeC {\cyre } \IeC {\cyrv }\IeC {\cyre }\IeC {\cyrr }\IeC {\cyro }\IeC {\cyrya }\IeC {\cyrt }\IeC {\cyrn }\IeC {\cyro }\IeC {\cyrs }\IeC {\cyrt }\IeC {\cyri }. \IeC {\CYRS }\IeC {\cyrt }\IeC {\cyro }\IeC {\cyrh }\IeC {\cyra }\IeC {\cyrs }\IeC {\cyrt }\IeC {\cyri }\IeC {\cyrch }\IeC {\cyre }\IeC {\cyrs }\IeC {\cyrk }\IeC {\cyra }\IeC {\cyrya } \IeC {\cyrn }\IeC {\cyre }\IeC {\cyrz }\IeC {\cyra }\IeC {\cyrv }\IeC {\cyri }\IeC {\cyrs }\IeC {\cyri }\IeC {\cyrm }\IeC {\cyro }\IeC {\cyrs }\IeC {\cyrt }\IeC {\cyrsftsn }.}{1}}
\@writefile{toc}{\contentsline {section}{\numberline {3}\IeC {\CYRS }\IeC {\cyrh }\IeC {\cyre }\IeC {\cyrm }\IeC {\cyra } \IeC {\CYRB }\IeC {\cyre }\IeC {\cyrr }\IeC {\cyrn }\IeC {\cyru }\IeC {\cyrl }\IeC {\cyri }.}{2}}
\@writefile{toc}{\contentsline {section}{\numberline {4}\IeC {\CYRR }\IeC {\cyra }\IeC {\cyrs }\IeC {\cyrp }\IeC {\cyrr }\IeC {\cyre }\IeC {\cyrd }\IeC {\cyre }\IeC {\cyrl }\IeC {\cyre }\IeC {\cyrn }\IeC {\cyri }\IeC {\cyre } \IeC {\CYRP }\IeC {\cyru }\IeC {\cyra }\IeC {\cyrs }\IeC {\cyrs }\IeC {\cyro }\IeC {\cyrn }\IeC {\cyra }.}{2}}
