\relax 
\catcode`"\active
\select@language{russian}
\@writefile{toc}{\select@language{russian}}
\@writefile{lof}{\select@language{russian}}
\@writefile{lot}{\select@language{russian}}
\@writefile{toc}{\contentsline {section}{\numberline {1}\IeC {\CYRM }\IeC {\cyra }\IeC {\cyrt }\IeC {\cyra }\IeC {\cyrn }.}{1}}
\@writefile{toc}{\contentsline {subsection}{\numberline {1.1}\IeC {\CYRZ }\IeC {\cyra }\IeC {\cyrd }\IeC {\cyra }\IeC {\cyrch }\IeC {\cyra }.}{1}}
\@writefile{toc}{\contentsline {subsection}{\numberline {1.2}\IeC {\CYRZ }\IeC {\cyra }\IeC {\cyrd }\IeC {\cyra }\IeC {\cyrch }\IeC {\cyra }.}{1}}
\@writefile{toc}{\contentsline {subsection}{\numberline {1.3}\IeC {\CYRZ }\IeC {\cyra }\IeC {\cyrd }\IeC {\cyra }\IeC {\cyrch }\IeC {\cyra }.}{1}}
\@writefile{toc}{\contentsline {section}{\numberline {2}\IeC {\CYRL }\IeC {\cyri }\IeC {\cyrn }\IeC {\cyra }\IeC {\cyrl }.}{1}}
\@writefile{toc}{\contentsline {subsection}{\numberline {2.1}\IeC {\CYRZ }\IeC {\cyra }\IeC {\cyrd }\IeC {\cyra }\IeC {\cyrch }\IeC {\cyra }.}{1}}
\@writefile{toc}{\contentsline {subsection}{\numberline {2.2}\IeC {\CYRZ }\IeC {\cyra }\IeC {\cyrd }\IeC {\cyra }\IeC {\cyrch }\IeC {\cyra }.}{2}}
\@writefile{toc}{\contentsline {subsection}{\numberline {2.3}\IeC {\CYRZ }\IeC {\cyra }\IeC {\cyrd }\IeC {\cyra }\IeC {\cyrch }\IeC {\cyra }.}{2}}
\@writefile{toc}{\contentsline {section}{\numberline {3}\IeC {\CYRT }\IeC {\cyre }\IeC {\cyrr }\IeC {\cyrv }\IeC {\cyre }\IeC {\cyrr }.}{2}}
\@writefile{toc}{\contentsline {subsection}{\numberline {3.1}\IeC {\CYRZ }\IeC {\cyra }\IeC {\cyrd }\IeC {\cyra }\IeC {\cyrch }\IeC {\cyra }.}{2}}
\@writefile{toc}{\contentsline {subsection}{\numberline {3.2}\IeC {\CYRZ }\IeC {\cyra }\IeC {\cyrd }\IeC {\cyra }\IeC {\cyrch }\IeC {\cyra }.}{2}}
\@writefile{toc}{\contentsline {subsection}{\numberline {3.3}\IeC {\CYRZ }\IeC {\cyra }\IeC {\cyrd }\IeC {\cyra }\IeC {\cyrch }\IeC {\cyra }.}{3}}
\@writefile{toc}{\contentsline {section}{\numberline {4}\IeC {\CYRA }\IeC {\cyrl }\IeC {\cyrg }\IeC {\cyro }\IeC {\cyrr }\IeC {\cyri }\IeC {\cyrt }\IeC {\cyrm }\IeC {\cyrery }.}{3}}
\@writefile{toc}{\contentsline {subsection}{\numberline {4.1}\IeC {\CYRZ }\IeC {\cyra }\IeC {\cyrd }\IeC {\cyra }\IeC {\cyrch }\IeC {\cyra }.}{3}}
\@writefile{toc}{\contentsline {subsection}{\numberline {4.2}\IeC {\CYRZ }\IeC {\cyra }\IeC {\cyrd }\IeC {\cyra }\IeC {\cyrch }\IeC {\cyra }.}{3}}
\@writefile{toc}{\contentsline {subsection}{\numberline {4.3}\IeC {\CYRZ }\IeC {\cyra }\IeC {\cyrd }\IeC {\cyra }\IeC {\cyrch }\IeC {\cyra }.}{3}}
