\relax 
\catcode`"\active
\newlabel{tocindent-1}{0pt}
\newlabel{tocindent0}{0pt}
\newlabel{tocindent1}{19.35791pt}
\newlabel{tocindent2}{0pt}
\newlabel{tocindent3}{0pt}
\select@language{russian}
\@writefile{toc}{\select@language{russian}}
\@writefile{lof}{\select@language{russian}}
\@writefile{lot}{\select@language{russian}}
\@writefile{toc}{\contentsline {section}{\tocsection {}{1}{\IeC {\CYRB }\IeC {\cyri }\IeC {\cyrn }\IeC {\cyro }\IeC {\cyrm } \IeC {\CYRN }\IeC {\cyrsftsn }\IeC {\cyryu }\IeC {\cyrt }\IeC {\cyro }\IeC {\cyrn }\IeC {\cyra }. \IeC {\CYRS }\IeC {\cyrv }-\IeC {\cyrv }\IeC {\cyra } $C_n^k$.}}{1}}
\@writefile{toc}{\contentsline {section}{\tocsection {}{2}{\IeC {\CYRR }\IeC {\cyra }\IeC {\cyrz }\IeC {\cyrn }\IeC {\cyrery }\IeC {\cyre } \IeC {\cyrz }\IeC {\cyra }\IeC {\cyrd }\IeC {\cyra }\IeC {\cyrch }\IeC {\cyri } \IeC {\cyrn }\IeC {\cyra } $A_n^k$, $C_n^k$, $\overline  {C}_n^k = C_{n+k-1}^k$, $P_n = n!$.}}{1}}
\@writefile{toc}{\contentsline {section}{\tocsection {}{3}{\IeC {\CYRK }\IeC {\cyrr }\IeC {\cyru }\IeC {\cyrg }\IeC {\cyri } \IeC {\CYREREV }\IeC {\cyrishrt }\IeC {\cyrl }\IeC {\cyre }\IeC {\cyrr }\IeC {\cyra }. \IeC {\CYRF }\IeC {\cyro }\IeC {\cyrr }\IeC {\cyrm }\IeC {\cyru }\IeC {\cyrl }\IeC {\cyra } \IeC {\cyrv }\IeC {\cyrk }\IeC {\cyrl }\IeC {\cyryu }\IeC {\cyrch }\IeC {\cyre }\IeC {\cyrn }\IeC {\cyri }\IeC {\cyrya }-\IeC {\cyri }\IeC {\cyrs }\IeC {\cyrk }\IeC {\cyrl }\IeC {\cyryu }\IeC {\cyrch }\IeC {\cyre }\IeC {\cyrn }\IeC {\cyri }\IeC {\cyrya }.}}{1}}
